/* XPM */
static char *_643c4c13eab4f0ae2b17ea9e328e316[] = {
/* columns rows colors chars-per-pixel */
"32 32 41 1 ",
"  c #232323232323",
". c gray20",
"X c #3C3C3C3C3C3C",
"o c gray27",
"O c gray30",
"+ c gray34",
"@ c #646464646464",
"# c gray40",
"$ c #686868686868",
"% c #6C6C6C6C6C6C",
"& c #717171717171",
"* c #767676767676",
"= c #797979797979",
"- c #7B7B7B7B7B7B",
"; c #808080808080",
": c #898989898989",
"> c gray55",
", c #939393939393",
"< c gray58",
"1 c #9B9B9B9B9B9B",
"2 c #9F9F9F9F9F9F",
"3 c gray63",
"4 c #AAAAAAAAAAAA",
"5 c #B6B6B6B6B6B6",
"6 c #B9B9B9B9B9B9",
"7 c gray",
"8 c #C0C0C0C0C0C0",
"9 c #C6C6C6C6C6C6",
"0 c gray80",
"q c #D0D0D0D0D0D0",
"w c #D5D5D5D5D5D5",
"e c gray86",
"r c gainsboro",
"t c #E1E1E1E1E1E1",
"y c #E6E6E6E6E6E6",
"u c gray91",
"i c #EEEEEEEEEEEE",
"p c #F3F3F3F3F3F3",
"a c #F4F4F4F4F4F4",
"s c #FBFBFBFBFBFB",
"d c gray100",
/* pixels */
"dddddddddddddddddddddddddddddddd",
"dddddddddddddddddddddddddddddddd",
"dddddddddddddddddddddddddddddddd",
"dddddddddddddddddddddddddddddddd",
"ddddddddddyrrerrrrrrrrrrrrrtuddd",
"ddddddddt:#%&&&%&%%&%&&%&&o #pdd",
"ddddddy<#3ussssssssassssw;#<#add",
"ddddi3$1udddddddddddddt>#4au$pdd",
"dds4Xo166555555555555,#2uddt%add",
"dduO=:::::::::::::::%+yddddy$add",
"ddy%sdddddddddddddddq=dddddy$add",
"ddy%addddddddddddddd0=dddddy%add",
"ddy%addddddddddddddd0=dddddy%add",
"ddy%addddddddddddddd0=dddddy%add",
"ddy%addddddddddddddd0=dddddy$add",
"ddy%addddddddddddddd0=dddddy%add",
"ddy%addddddddddddddd0=dddddt%add",
"ddy%addddddddddddddd0=dddddy$add",
"ddy%addddddddddddddd0=dddddy$add",
"ddy%addddddddddddddd0=dddddy%add",
"ddy%addddddddddddddd0=dddddt%add",
"ddy%addddddddddddddd0=dddddy%add",
"ddy%addddddddddddddd0=ddddde#pdd",
"ddy%addddddddddddddd0=dddp5#,ddd",
"ddy$addddddddddddddd0=ds7$*0dddd",
"ddy%sddddddddddddddd0*9*&0dddddd",
"ddu+>1<<1<<<<<1<<<<1=.&7dddddddd",
"ddd7444444444444444448pddddddddd",
"dddddddddddddddddddddddddddddddd",
"dddddddddddddddddddddddddddddddd",
"dddddddddddddddddddddddddddddddd",
"dddddddddddddddddddddddddddddddd"
};
